{
  "project_info": {
    "project_number": "763823010518",
    "project_id": "per-delivery",
    "storage_bucket": "per-delivery.appspot.com"
  },
  "client": [
    {
      "client_info": {
        "mobilesdk_app_id": "1:763823010518:android:f9b8b2d92adff5997c4f77",
        "android_client_info": {
          "package_name": "com.perdelivery.app"
        }
      },
      "oauth_client": [
        {
          "client_id": "763823010518-4hjt665389msens79h4em2u44s1rj8g5.apps.googleusercontent.com",
          "client_type": 1,
          "android_info": {
            "package_name": "com.perdelivery.app",
            "certificate_hash": "4adbb32b074fa7f6fa95770a5453e38622d8440a"
          }
        },
        {
          "client_id": "763823010518-et3htgl64982egtfkt8q0u9o84fah7bq.apps.googleusercontent.com",
          "client_type": 3
        }
      ],
      "api_key": [
        {
          "current_key": "AIzaSyBRMRchfWcIoUv4MKGvpl-kJWF5SEiCsmc"
        }
      ],
      "services": {
        "appinvite_service": {
          "other_platform_oauth_client": [
            {
              "client_id": "763823010518-et3htgl64982egtfkt8q0u9o84fah7bq.apps.googleusercontent.com",
              "client_type": 3
            },
            {
              "client_id": "763823010518-2s6s5tbu3nsb1c92joe01rk0dpt77hqr.apps.googleusercontent.com",
              "client_type": 2,
              "ios_info": {
                "bundle_id": "com.perdelivery.app"
              }
            }
          ]
        }
      }
    },
    {
      "client_info": {
        "mobilesdk_app_id": "1:763823010518:android:a4133e04e8706acc7c4f77",
        "android_client_info": {
          "package_name": "com.perdelivery.driver"
        }
      },
      "oauth_client": [
        {
          "client_id": "763823010518-et3htgl64982egtfkt8q0u9o84fah7bq.apps.googleusercontent.com",
          "client_type": 3
        }
      ],
      "api_key": [
        {
          "current_key": "AIzaSyBRMRchfWcIoUv4MKGvpl-kJWF5SEiCsmc"
        }
      ],
      "services": {
        "appinvite_service": {
          "other_platform_oauth_client": [
            {
              "client_id": "763823010518-et3htgl64982egtfkt8q0u9o84fah7bq.apps.googleusercontent.com",
              "client_type": 3
            },
            {
              "client_id": "763823010518-2s6s5tbu3nsb1c92joe01rk0dpt77hqr.apps.googleusercontent.com",
              "client_type": 2,
              "ios_info": {
                "bundle_id": "com.perdelivery.app"
              }
            }
          ]
        }
      }
    },
    {
      "client_info": {
        "mobilesdk_app_id": "1:763823010518:android:94817fd4d2fbaeac7c4f77",
        "android_client_info": {
          "package_name": "com.perdelivery.vendor"
        }
      },
      "oauth_client": [
        {
          "client_id": "763823010518-et3htgl64982egtfkt8q0u9o84fah7bq.apps.googleusercontent.com",
          "client_type": 3
        }
      ],
      "api_key": [
        {
          "current_key": "AIzaSyBRMRchfWcIoUv4MKGvpl-kJWF5SEiCsmc"
        }
      ],
      "services": {
        "appinvite_service": {
          "other_platform_oauth_client": [
            {
              "client_id": "763823010518-et3htgl64982egtfkt8q0u9o84fah7bq.apps.googleusercontent.com",
              "client_type": 3
            },
            {
              "client_id": "763823010518-2s6s5tbu3nsb1c92joe01rk0dpt77hqr.apps.googleusercontent.com",
              "client_type": 2,
              "ios_info": {
                "bundle_id": "com.perdelivery.app"
              }
            }
          ]
        }
      }
    }
  ],
  "configuration_version": "1"
}